Source,SMILES
Tin326,n1(-c2c(c(cc(c2)C)C(C)(C)C)O)nc3ccc(cc3n1)Cl
UV24,O=C(c1c(O)cccc1)c2c(O)cc(OC)cc2
P2314,C(\c1c(cc(OCCCCCCCC)cc1)O)(/c2ccccc2)=N/Cc3ccccc3
P2417,C(=Cc1ccc(OCCCOc2ccc(C=C(C(OC)=O)C(OC)=O)cc2)cc1)(C(OC)=O)C(OC)=O
P2630,c1cccc(c1OCC)C
P3855,O=C(O)c1ccc(cc1O)NC(/C=C/c2ccccc2)=O
P3883,CCC(CCCC)COC(=O)C(C)=C(c1ccccc1)c2ccccc2
P3990,Cc1c(ccc(c1)C)-c2nc(-c3c(cc(cc3)OCCOC(CC(C)=O)=O)O)nc(-c4c(cc(cc4)C)C)n2
P4073,c1(c(O)cc(cc1)OC(C(CCCC)CC)=O)-c2nc(nc(n2)-c3ccc4c(c3)CCCC4)-c5cc6CCCCc6cc5
P4108,c1(nc(NCCO)nc2c1cccc2)-c3ccccc3
P4109,n1c(c(C(=O)OCC)cnc1-c2ccc(cc2)Cl)-c3ccccc3
P4110,S(Nc1nc(-c2ccccc2)cc(n1)-c3ccccc3)(c4ccc(cc4)N)(=O)=O
P4111,c1(-c2c(O)cc(c(c2)CCC)OC)c(-c3cc4c(cc3)OCCO4)cnc(N)n1
P4112,n1c(c(-c2ccccc2)c(nc1-c3ccccc3)N)-c4ccccc4
P4113,c1(ncc(cn1)-c2ccccc2)-c3ccccc3
P4114,o1c(c2cc(C)ccc2nc1OCC)=O
P4117,c1(oc(C(C)(C)C)nc2c1c(ccc2)C)=O
P4118,n1c(oc(c2c1c(cc(C)c2)C)=O)-c3ccc(C(C)(C)C)cc3
P4119,n1c(nc(cc1OC)-c2ccccc2)N
P4120,n1c(c(-c2ccc(cc2)OCC)c(nc1-c3ccc(cc3)OCC)O)O
P4121,c1(nc2ccc([N+]([O-])=O)cc2c(o1)=O)-c3cc(Cl)c(cc3)Cl
P4146,c1c(ncnc1-c2ccc(cc2)OC)-c3ccc(cc3)OC
P4147,c1(nc(NCCCCC)nc(n1)N)-c2c(ccc(c2)Cl)O
P4149,c1(-n2nc(C)cc2C)nc(cc(n1)-c3ccccc3)-c4ccccc4
P4151,c1(nc(-c2ccc(Cl)cc2)cc(n1)-c3ccc(cc3)Cl)Cl
P4152,n1c(nc2c(c1-c3ccc(cc3)F)CCC(C)C2)-c4ccc(cc4)F
P4159,c1(C(C(Nc2ccc(cc2)OCC)=O)=O)c(NC(=O)C)ccc(c1)Br
P4160,c1(/C(=N/CC(O)C)/C)c(ccc(c1)Cl)O
P4161,c1(c(NC(=O)c2ccccc2)cccc1)C(=O)OC
P4163,c1(oc(-c2ccc(C(C)(C)C)cc2)nn1)-c3c(NC(=O)C)cccc3
P4167,c1(c(c2ccccc2[nH]c1=O)O)/C=N/C(=O)N
P4168,c1(C2=NCCCN2)c(cc(cc1)N(C)C)S
P4169,c1(c(c(Cl)cc(c1)Cl)O)-c2[nH]ncc2
P4171,c1([nH]c(=O)c2c(n1)cccc2)-c3c(O)cccc3
P4172,c1(-c2oc3ccccc3c2)cc(-c4c(O)cccc4)on1
P4173,c1(n(c(=S)[nH]n1)-c2ccccc2)-c3c(O)cccc3
P4174,c1(nc2cc(OC)ccc2[nH]1)-c3c(c(O)c(cc3)O)O
P4176,c1(c(cc([nH]c1=O)-c2c(O)cccc2)-c3ccc(cc3)C)C#N
P4177,S(Nc1c(-c2nc3ccccc3c(o2)=O)cccc1)(c4ccc(cc4)F)(=O)=O
P4178,c1(-c2c(O)cccc2)nnco1
P4181,c1(sc(=S)c2c(n1)cccc2)-c3c(N)cccc3
P4182,c1(nc(N)nc(n1)N)-c2c(Oc3c(cc(cc3)Cl)Cl)cccc2
P4184,c1(ncn(n1)C)-c2c(N)cccc2
P4186,n1c(-c2c(NC(c3ccc(cc3)Cl)=O)ccc(c2)Cl)noc1-c4ccc(cc4)Cl
P4187,c1(c(nc(s1)C)C)-c2nc(N/C=N/O)ncc2
P4212,c1(c(cccc1)N)C2N=C3C(C=CC=C3)N2
P4220,c1(-n2nc3ccccc3n2)c(ccc(C=C(C(=O)OCC)C(=O)OCC)c1)O
P4224,c1(-c2ccc(C)c(C)c2)nc(nc(n1)-c3ccc(c(c3O)CN4CCOCC4)O)-c5ccc(C)c(C)c5
P4300,c1(-c2nc(nc(n2)-c3ccc(cc3O)C(C)C)-c4ccc(C(C)C)cc4O)c(cc(cc1)C(C)C)O
P515,c1ccc2c(c1)nn(n2)-c3c4c(ccc3O)cccc4
