"PA_ID","Amax","Molecule (Canonical)"
"P23",21,"O=C1c2ccccc2C(=O)N1c1ccc2c(c1)S(=O)(=O)c1cc(N3C(=O)c4ccccc4C3=O)ccc1-2"
"P39",34,"COCC#CCOC"
"P132",17,"O=S(c1cc(Cl)cc(Cl)c1O)c1cc(Cl)cc(Cl)c1O"
"P298",19,"O=COC1CCC2CCCCC2C1C(=O)C1CCCCC1"
"P392",116,"C=CC=C=C=C/C=N/NC(=N)N"
"P608",19,"O"
"P793",71,"O=[N+]([O-])c1cnc(O[Na])nc1"
"P824",196,"[O-][n+]1cc[n+]([O-])cc1"
"P914",164,"Sc1nc(S)nc(S)n1"
"P966",65,"C(=N/c1nncs1)\Nc1nncs1"
"P1103",137,"C(=N/N=C/c1c[nH]c2ccccc12)\c1c[nH]c2ccccc12"
"P1114",,"C1=CC([Fe]C2=CCC=C2)=CC1"
"P1123",,"N#CO[Ni]OC#N.c1ccncc1.c1ccncc1"
"P1194",,"C1=CC([Ni]C2C=CC=C2)C=C1"
"P1204",20,"C/C1=C/C(C)=N/CCC/N=C(C)/C=C(/C)O[Ni]O1"
"P1290",104,"c1ccc(-c2cnn(-c3nc4ccccc4s3)c2)cc1"
"P1293",,"Nc1nc(N)nc(C(F)(F)C(F)(F)C(F)(F)C(F)(F)C(F)(F)C(F)F)n1"
"P1805",25,"CC"
"P1815",,"OC1O[Ni]OC(O)C2C1CC1C(O)O[Ni]OC(O)C12"
"P1888",,"NCCCCCCCCCCCC[Ni]CCCCCCCCCCCCN"
"P1904",119,"N#CC(C#N)=C1SCCS1"
"P1963",,"[Al+3].[O-]c1c(Cl)c(Cl)c(Cl)c(Cl)c1Cl"
"P1969",83,"CCn1/c(=N/c2ccc(OC)cc2)oc2ccccc21"
"P2008",53,"C"
"P2066",,"S=P(SSP(Sc1ccccc1)c1ccccc1)(c1ccccc1)c1ccccc1"
"P2094",38,"CN(C)CCCNC(=S)C(=S)NCCCN(C)C"
"P2110",,"O=[PH]1O[SnH2]O1"
"P2117",62,"*Oc1ccc(C2=NC(c3ccc(O*)cc3O)NC(c3ccc(O*)cc3O)=N2)c(O)c1.C"
"P2124",91,"Cl"
"P2159",,"CC(=N\[O-])/C(C)=N/O.[Ni+2]"
"P2165",,"S=C([S-])N1CCCC1.[Mn+2]"
"P2223",,"O=C([O-])CCP(=O)(CCC(=O)[O-])CCC(=O)O.[Zn+2]"
"P2282",28,"O=C1[C-]([n+]2ccccc2)C(=O)C(F)(F)C1(F)F"
"P2330",22,"O=C(CCN(CCC(=O)NCO)c1nc(O)nc(Nc2cc(S(=O)(=O)[O-])cc3cc(S(=O)(=O)[O-])c(/N=N/c4ccccc4S(=O)(=O)[O-])c(O)c23)n1)NCO.[Na+].[Na+].[Na+]"
"P2619",,"[O-]/[N+](=N\C12CC3CC(CC(C3)C1)C2)C1C2CC3CC(C2)CC1C3"
"P2677",,"CC(C)OP(=S)([S-])OC(C)C.[Co+2]"
"P2696",92,"COC(=O)C(=Cc1ccc(C)cc1)C(=O)OC"
"P2710",,"CC(C)(C)CC(C)(C)c1ccc([O-])c(Sc2cc(C(C)(C)CC(C)(C)C)ccc2[O-])c1.CCCCC(CC)CN.[Ni+2]"
"P2813",,"CC(C)C1OC(C(C)C)P(=O)([O-])C(C(C)C)O1.[Ni+2]"
"P2841",,"NC1(C2(N)CCCCC2)CCCCC1.[Cl-].[Cl-].[Ni+2]"
"P2911",,"CCOP1(=O)NCCCS1"
"P2943",,"N#CCCN1CCC(CCCC2CCN(CCC#N)CC2)CC1"
"P2944",,"C=O.CCCCCCCCCCC.CCCCCCCCCCC.CCCCCCCCCCC.CCCCCCCCCCP(O)O.CO.C[Ni]OP=O"
"P3162",,"Brc1c(Br)c(Br)c(Nc2c(Br)c(Br)c(Br)c(Br)c2Br)c(Br)c1Br"
"P3291",,"CN1C(C)(C)CC(O)(C(N)=O)CC1(C)C"
"P3338",,"CCC(C)(CC)NC(CC)(CC)CC"
"P3364",,"CC(C)(C)NP1(NC(C)(C)C)=NP(NC2CC(C)(C)NC(C)(C)C2)(NC2CC(C)(C)NC(C)(C)C2)=NP(NC2CC(C)(C)NC(C)(C)C2)(NC2CC(C)(C)NC(C)(C)C2)=N1"
"P3624",,"C#N"
"P4152",49.00501966,"CC1CCc2c(nc(-c3ccc(F)cc3)nc2-c2ccc(F)cc2)C1"
"P4297",,"Clc1nc(N2CCOCC2)nc(N2CCOCC2)n1"
