"","CMPD","MaxAbsorbance","MaxAbsWavelength","AreaUnderCurve"
"1","Chi326a","0.485585079419631",355,38.4052462768787
"2","Chi326b","4.30980391997149",351,364.177665289466
"3","Chi326c","4.69897000433602",378,466.451397298249
"4","Chi328a","0.417062107846652",347,31.8153425798618
"5","Chi328b","4",349,313.014249312481
"6","Chi328c","4.50863830616573",350,434.215938318711
"7","p1164a","0.8358",292,36.431
"8","p1164a3","0.8044",293,35.09425
"9","p1164a4","0.8334",293,36.1327
"10","p1164am","0.855",291,36.39595
"11","p1164b","2.7784",338,186.5998
"12","p1164b2","2.4653",346,112.7642
"13","p1164b3","2.579",344,183.3865125
"14","p1164b4","2.1931",357,32.8339
"15","p1164c","2.4987",351,191.21615
"16","p1164c2","2.6555",344,221.6089
"17","p1164c3","2.6178",293,224.6308
"18","p2098a","0.4852",291,20.38245
"19","p2098at","0.437",291,18.655
"20","p2098b","2.1274",346,148.861759090909
"21","p2098b2","0.9779",399,30.902
"22","p2098bt","3.1163",293,167.7237
"23","p2098c","0.8228",399,11.7023
"24","p2301am","0.4314",303,26.20555
"25","p2301at","0.2566",313,13.14265
"26","p2301bm","3.1637",296,233.9466
"27","p2301bt","2.4099",312,125.5428
"28","p2301cm","3.3311",292,328.945123684211
"29","p2301ct","3.3335",291,312.74215
"30","p2314at","0.2532",316,12.3121
"31","p2314bm","3.0648",301,211.6036
"32","p2314bt","2.355",317,115.17535
"33","p2314cm","3.2926",291,330.86668
"34","p2314ct","3.0928",294,268.4861
"35","P2340a","0.481053",351,33.2508665
"36","P2417a","0.8053",313,32.32495
"37","P2630a","0.4504",302,16.8034
"38","p3638a","1.2954",349,70.14025
"39","p3638b","2.5765",355,231.297795454545
"40","p3638b2","2.6768",296,211.03965
"41","p3718c","3.0881",310,159.5505
"42","p3718c2","3.0447",309,158.19495
"43","p3731at","0.4557",298,33.18375
"44","p3731bm","3.4366",292,294.6481
"45","p3731c2m","0.7092",354,55.75645
"46","p3731cm","3.4718",292,329.556825
"47","p3732am","0.5882",356,49.3323
"48","p3732at","0.5479",356,45.05915
"49","p3732bm","3.3527",291,300.8873
"50","p3732cm","3.4099",291,329.060505263158
"51","p3842a","0.41",344,30.4141
"52","p3842a3","0.4012",346,29.5761
"53","p3842b","2.3702",356,72.73985
"54","p3842b2","2.4374",348,175.779
"55","p3842b3","2.9821",310,233.5931
"56","p3842c","2.4539",357,83.25515
"57","p3842c2","2.5497",356,234.159
"58","p3842c3","3.1864",294,280.43105
"59","p3843a","0.6847",293,31.65545
"60","p3855a","1.1321",308,55.9297
"61","p3855b","2.3834",345,162.856987912088
"62","p3855c","2.2784",354,46.98975
"63","p3856a","0.67",291,19.60605
"64","p3856b","2.1554",326,96.79105
"65","p3856c","1.812",339,22.26285
"66","p3878a","0.577",356,36.818
"67","p3878b","2.1361",291,195.7595
"68","p3878c","1.8423",397,6.34155
"69","p3883a","0.3698",305,16.36295
"70","P3893a","0.971022294791222",292,39.3596679094853
"71","P3893b","6",338,309.186632204975
"72","P3893c","4.85387196432176",325,394.797221399523
"73","P3950a","0.499338223725483",355,39.4948835370279
"74","P3950b","4.32790214206428",351,364.266774544273
"75","P3950c","4.79588001734407",378,458.562938250242
"76","P3981a","0.466895554283145",291,19.8244529734121
"77","P3988a","0.956009334121866",291,36.1273184553518
"78","P3988b","4.60205999132796",291,281.11045057354
"79","P3988c","6",308,391.45515356467
"80","P3990a","0.821598658466245",292,32.7262180107048
"81","P3990b","4.79588001734407",296,271.204587973456
"82","P3990c","4.76955107862173",346,375.077512129726
"83","P3991a","0.74470336809566",292,32.3332682208071
"84","P3991b","6",304,277.896625220017
"85","P3991c","6",293,389.342750466117
"86","P3996a","0.735158574670852",292,29.0775545459918
"87","P3996b","4.85387196432176",298,256.740632251884
"88","P3996c","4.79588001734407",325,381.729912588724
"89","P4015a","0.581311941146849",290.999999999952,28.4025783538598
"90","P4015ac","0.916583538055418",290.999999999952,43.0395163297302
"91","P4015acf","0.936851739883421",290.099999999952,43.0377811550743
"92","P4015atf","0.595706701278685",290.099999999952,28.4013319134491
"93","P4015b","5.03407073020934",296.999999999954,301.426649272297
"94","P4015bc","4.74560070037841",291.999999999953,309.996043801162
"95","P4015bcf","4.88499093055724",295.499999999954,309.996556770656
"96","P4015btf","5.33647990226744",343.599999999964,301.32139820442
"97","P4015c","6.13789737224578",377.999999999972,471.362570106877
"98","P4015cc","5.99999999999999",376.999999999972,431.614254295708
"99","P4015ccf","6.12174880504607",377.499999999972,431.815215963007
"100","P4015ctf","6.14482343196868",309.599999999957,471.298875266207
"101","P4032a","0.957700192586375",294,36.5802611878507
"102","P4032b","6",306,301.152259945468
"103","P4032c","6",347,432.556406049712
"104","P4040a","0.884660669082364",296,39.0618265984641
"105","P4040ac","0.943373767403443",296,42.0222140194116
"106","P4040b","4.95990207292601",298,294.963679713923
"107","P4040bc","4.54711294321506",299,295.567781583258
"108","P4040c","4.68816145336402",348,384.549485474385
"109","P4040cc","4.78381081387033",354,239.386822639309
"110","P4068a","0.465250672324769",350,35.259005077155
"111","P4068am","0.548274953193305",347,42.1239837690178
"112","P4068b","3.6903698325741",353,308.670354387155
"113","P4068bm","3.80134291304558",351,317.406793409479
"114","P4068c","3.93181413825384",319,375.374280520713
"115","P4068cm","4.05551732784983",378,390.287182597531
"116","P4069a","0.935385173698281",296,40.2674674485706
"117","P4069ac","0.960156115073038",295,40.574609616983
"118","P4069b","4.45830704882315",309,292.020386049199
"119","P4069bc","4.73056530191711",316,284.983551992955
"120","P4069c","4.65887207726203",291,390.399708375582
"121","P4069cc","4.77756186459333",332,234.34410787998
"122","P4071a","0.928137185589124",291,33.3924533391924
"123","P4071ac","0.921211949920405",291,33.3990108600005
"124","P4071b","4.7418463123268",305,240.112108324469
"125","P4071bc","3.75167109084701",326,88.0682386754058
"126","P4071c","5.17550187326537",317,364.965068219429
"127","P4071cc","4.91508972850965",350,208.158624836708
"128","P4072a","0.876295082906241",291,31.7874152772506
"129","P4072ac","0.882697740297098",291,32.5656417001218
"130","P4072b","5.77756186459333",318,237.210341838664
"131","P4072bc","3.66171370887376",326,84.3211881949423
"132","P4072c","4.68816145336402",339,359.764302362205
"133","P4072cc","4.85180789296544",330,205.923137829036
"134","P4073a","0.865765274156077",291,31.3202643756028
"135","P4073a2","0.837715409866765",291,30.697173172218
"136","P4073ac","0.877315715309782",291,31.9757680047284
"137","P4073b","5.30044060987367",318,234.433791656562
"138","P4073bc","3.61108946101031",326,84.5301630007053
"139","P4073c","4.75933704448713",350,361.407239602688
"140","P4073cc","5.20768655663677",333,205.741326802971
"141","P4074a","0.770528340239023",291,27.8637210173443
"142","P4074ac","0.840177963992937",291,30.5379996572242
"143","P4074b","4.76532740817632",297,227.181740538588
"144","P4074bc","3.39170034885902",326,80.0530669651724
"145","P4074c","4.52923821944535",317,361.37143061907
"146","P4074cc","4.76532740817632",333,206.75217979902
"147","P4075ac","0.85671581298858",291,31.6797085674567
"148","P4075b","6.32162990894361",305,226.115375351313
"149","P4075bc","3.4515187535792",326,82.0245546839606
"150","P4075c","4.95056204667187",324,360.623523685972
"151","P4075cc","5.20768655663677",333,205.741326802971
"152","P4107a","1.27307093143463",350,68.093251287937
"153","P4107atm","1.25768864154815",349,69.3073439598082
"154","P4108a","0.170845746994018",370,10.7844274640083
"155","P4109a","0.884260296821592",291,15.6379328370094
"156","P4110a","0.0647718906402587",291,2.39086520671844
"157","P4111d","2.10962486267089",358,131.546397745609
"158","P4112d","0.925564050674436",291,44.1156691312789
"159","P4113a","1.35884022712707",291,28.1938874721526
"160","P4114a","0.184662342071533",323,7.20769906044005
"161","P4115a","1.123708486557",318,69.9876287579535
"162","P4115atm","1.10021686553955",318,70.8838984966277
"163","P4116a","0.119876503944397",316,4.06337398290633
"164","P4117a","0.194273829460144",312,6.37878316640853
"165","P4118a","0.620616436004637",310,30.5318439602851
"166","P4119a","0.330994367599487",303,10.5817505717277
"167","P4120d","0.272530555725097",325,18.2782198786735
"168","P4121a","0.58985674381256",331,33.3673574328422
"169","P4121d","6.1059569120407",319,323.278971552848
"170","P4131a","0.964394686901518",295,40.0255581463752
"171","P4131b","4.48912099623737",291,296.332904780199
"172","P4131c","4.74759864121589",299,383.710967656826
"173","P4133a","0.907360353916285",310,47.3825380899041
"174","P4133b","4.44081631666281",336,307.383415191956
"175","P4133c","4.51207019430834",340,390.541176856805
"176","P4134a","1.29591657167518",307,40.8631553147058
"177","P4134b","4.63588817034134",321,175.660067685192
"178","P4134c","4.66361851228649",326,217.510100139494
"179","P4146a","0.652549862861632",330,32.0175827741622
"180","P4146ac","0.758478403091429",331,38.968288719654
"181","P4146bc","6.15355718135832",318,284.336696445941
"182","P4147a","0.191782712936401",333,9.24626159667967
"183","P4147ac","0.0952073335647581",334,4.80804520845412
"184","P4147bc","1.22422266006469",334,60.6569537520407
"185","P4148a","0.701063752174376",291,30.4353687763213
"186","P4149a","0.348129272460937",321,14.9510585665703
"187","P4150a","0.332422018051147",291,18.0082398056984
"188","P4151a","0.407040953636169",291,19.8183590769767
"189","P4152a","0.266620278358459",291,4.23657941818236
"190","P4159a","0.189780950546264",291,14.702756524086
"191","P4160a","0.168569803237915",332,8.76910471916197
"192","P4161a","0.380043864250182",320,15.18833309412
"193","P4162a","0.584575414657592",291,23.9059129953384
"194","P4163a","0.747455716133116",298,30.4887549877166
"195","P4164a","0.487648367881774",296,17.4979429244995
"196","P4165a","0.461862921714782",291,20.9566746354103
"197","P4166a","0.379749059677123",291,17.3592123389244
"198","P4167a","0.151692748069763",324,8.39881324768065
"199","P4168d","0.135802984237671",309,8.49364471435545
"200","P4169a","0.236008167266845",319,6.77377128601073
"201","P4171a","0.653455734252928",337,37.8005733489989
"202","P4171d","6.123393535614",318,325.571957945823
"203","P4172a","0.911257266998289",302,25.6283490657806
"204","P4173a","0.273423075675964",291,9.52777612209318
"205","P4173d","2.80685544013976",291,98.9667483568189
"206","P4174a","0.51755130290985",325,19.781438589096
"207","P4174d","6.0978112220764",319,203.141810834407
"208","P4175d","0.0244618654251098",368,1.76879596710205
"209","P4176d","0.126419186592102",374,9.09940487146376
"210","P4177a","0.305431723594665",291,18.494234919548
"211","P4178a","0.390666961669921",308,11.5306872725487
"212","P4179a","0.239790081977844",291,8.2946415543556
"213","P4180a","0.157167792320251",319,5.57630038261412
"214","P4181a","0.398636698722839",291,27.0763019919395
"215","P4182a","0.0269105434417724",291,0.323087155818939
"216","P4183a","0.148045420646667",291,2.81892561912536
"217","P4184a","0.352719664573669",322,13.0030010938644
"218","P4185a","0.132560729980468",293,3.2696834206581
"219","P4186a","0.416164517402648",291,13.4717207551002
"220","P4187a","0.148221850395202",293,6.82604259252547
"221","P4207a","0.861002985967364",291,29.1205750726086
"222","P4207b","6",307,250.365536093851
"223","P4207c","6",321,390.078784517917
"224","P4212am","0.407368082895339",291,24.7024136150973
"225","P4212bm","3.5003129173816",292,235.349386823042
"226","P4212cm","5.15490195998574",378,395.203787482707
"227","P4220a","0.949709",302,48.254593
"228","P4224a","0.70095055340246",297,33.4511640352277
"229","P4224b","6",300,311.059334729515
"230","P4224c","5.69897000433602",293,485.820501490599
"231","P4225a","0.869762752114771",295,44.0896308816586
"232","P4225b","6",305,365.908847520865
"233","P4225c","6",372,478.198635007378
"234","P4226a","1.20478061247437",295,49.1227471774476
"235","P4226c","6",353,421.765639122552
"236","P4227a","1.02425120329509",294,38.5731066916225
"237","P4227b","5.39794000867204",307,305.331251190543
"238","P4227c","6",303,408.153621426449
"239","P4231a","0.995506662452726",295,41.2140630506669
"240","P4231b","5.69897000433602",307,330.514706090171
"241","P4231c","5.39794000867204",302,426.312882864566
"242","p4236a","0.7737",295,32.05725
"243","p4238a","0.7198",296,29.83155
"244","P4271a","0.412548",352,31.2525815
"245","P4276a","0.782803",312,46.104528
"246","P4282a","0.555",332,32.2743
"247","P4282b","5.2392",330,301.6701
"248","P4283a","0.421",334,18.64685
"249","P4283b","4.3591",333,181.4442
"250","P4284a","0.49754",357,38.698477
"251","P4284b","5.519661",342,410.798808
"252","P4284c","3.740961",397,335.041451431624
"253","P4285a","0.479181",353,38.6528545
"254","P4285b","4.992424",338,400.20743
"255","P4285c","4.029743",394,359.411926964912
"256","P4286a","0.533379",359,41.5385275
"257","P4286b","6.027469",319,438.8009305
"258","P4286c","3.801054",399,370.155280529412
"259","P4287ac","1.170718",357,68.616432
"260","P4289ac","1.078756",348,57.4948655
"261","P4290ac","1.135418",355,68.229439
"262","P4290bc","4.848802",297,396.759155
"263","P4298a","0.082871",291,2.7291965
"264","P4298b","0.871264",291,28.434009
"265","P4298c","4.233556",312,241.361943269231
"266","P4299a","0.9442",296,54.7372
"267","P4300a","0.9951",299,55.2885
"268","P4301a","0.8137",291,39.4141
"269","P4302a","0.6457",291,31.49735
"270","p4459d","0.0144",386,1.2077
"271","p515am","0.4491",291,12.9669
"272","p515at","0.476",357,38.0047
"273","p515bm","3.2794",291,121.33375
"274","p515bt","2.9969",340,274.0444
"275","p515cm","3.3069",291,240.8896
"276","p515ct","3.3542",292,324.95985
"277","p531a","0.3785",297,17.5961
"278","p531a2","0.4696",291,21.5181
"279","p531a3","0.4705",291,20.75305
"280","p531at","0.4433",291,19.8922
"281","p531b","2.3634",323,129.3597
"282","p531b2","1.8284",349,136.956796052632
"283","p531b3","3.2333",292,177.6043
"284","p531bt","3.0291",293,172.7019
"285","p531c","2.4792",350,174.5028
"286","p531c2","1.7908",371,27.01595
"287","p531c3","3.2572",292,243.04585
"288","p531ct","3.0549",296,241.88455
"289","p532a","0.7393",347,40.9682
"290","p532b","2.1779",298,185.588
"291","p532c","1.9718",370,44.6986
"292","p581am","0.6485",298,43.8254
"293","p581at","0.6007",302,44.96635
"294","p581bm","3.3094",293,277.24505
"295","p581bt","3.3344",292,289.1388
"296","p581cm","3.3702",291,327.69945
"297","p581ct","3.3373",292,320.84172
"298","Pcv9001a","0.482847226280199",351,36.8885386453681
"299","Pcv9002b","5.34390630365476",358,346.781159595458
"300","Pcv9003c","6.62265990460759",330,444.023686620658
"301","Pcv9004a","0.430533659823947",348,32.9392645174836
"302","Pcv9005b","4.35548817620457",318,314.277780435542
"303","Pcv9006c","5.00987604788785",332,432.382853115216
"304","s3206a","0.3442",300,13.8301
"305","s3206b","2.476",297,111.995966666667
"306","s3206c","2.5308",339,167.046107692308
"307","See703a","0.484457299637878",355,38.4210867610936
"308","See703b","4.21467016498923",348,363.249411304202
"309","See703c","4.55284196865778",378,464.910594971135
"310","See704a","0.418107205061382",347,31.9265471957945
"311","See704b","4.06048074738138",319,313.425450450214
"312","See704c","4.95860731484177",378,440.474114952764
"313","t109a","0.3471",353,26.5556
"314","t109b","2.073",298,191.82215
"315","t109c",NA,NA,0
"316","t1130a","0.2385",347,17.11845
"317","t1130a2","0.2243",345,17.1211
"318","t1130b","2.1987",345,152.00925
"319","t1130b2","2.1167",306,158.8725
"320","t1130c","2.4706",355,214.69295
"321","t213ac","0.7443",296,43.1126
"322","t213am","0.2929",301,21.0205
"323","t213at","0.2337",346,17.7385
"324","t213bc","2.3116",303,174.60095
"325","t213bm","2.7141",302,192.38815
"326","t213bt","2.2421",347,169.9453
"327","t213cc","3.3501",291,279.73155
"328","t213cm","3.3091",293,268.2396
"329","t213ct","3.1519",294,273.6642
"330","t326a","0.4886",355,38.8055
"331","T326a2","0.488410722525295",355,38.623334630945
"332","t326b","3.1328",344,267.978
"333","T326b2","4.24412514432751",351,366.007529624534
"334","t326c","3.2249",294,318.6221
"335","T326c2","4.69897000433602",378,468.254045331795
"336","t327am","0.4597",347,35.2682
"337","t327at","0.4407",354,34.3643
"338","t327bm","3.0667",298,253.48195
"339","t327bt","3.0099",344,256.39995
"340","t327cm","3.3694",291,304.983
"341","t327ct","3.1555",293,309.00145
"342","t328a","0.4208",349,30.6325
"343","T328a2","0.417005381076119",347,31.8435458144137
"344","t328b","2.4601",343,184.90335
"345","T328b2","4.06048074738138",343,316.467063872216
"346","t328c","2.6511",389,213.9759
"347","T328c2","5.04575749056067",362,443.801358077115
"348","T360a","0.478514",350,36.674807
"349","T360b","5.69566",341,390.6632905
"350","T360c","3.656158",389,361.40647525
"351","t571a","0.4699",345,34.14445
"352","t571b","2.0459",365,33.9859
"353","t571c","2.0016",390,55.4501
"354","t900b","2.5532",343,168.3121
"355","t900c","2.5634",388,221.2241
"356","tinpam","0.6652",336,43.57135
"357","tinpat","0.6996",344,46.6032
"358","tinpbc","3.2958",292,241.4688
"359","tinpbm","3.2543",291,228.11915
"360","tinpbt","3.022",298,237.11275
"361","tinpcc","3.4161",292,275.371
"362","tinpcm","3.3276",292,260.566
"363","tinpct","3.1232",300,268.21775
"364","uv24a","0.5516",352,40.10705
"365","uv24b","1.686",384,198.728061538462
"366","uv24b3","2.674",348,212.2592
"367","uv24c3","2.97",399,259.978583333333
"368","uv5411a","0.497",346,31.9006
"369","uv5411a2","0.5005",341,34.41855
"370","uv5411am","0.4528",338,30.22545
"371","uv5411b","2.5951",348,177.2523
"372","uv5411b2","1.9049",364,173.312740361446
"373","uv5411bm","3.2921",293,220.30545
"374","uv5411c","2.5505",346,206.21365
"375","uv9a","0.4292",298,22.2407
"376","uv9b","2.4161",334,142.2634
"377","uv9c","2.5944",347,187.4703
